0.5	0.000E+00	0.000E+00	0.000E+00	2.861E+09	0.000E+00	1.425E+09	0.000E+00	1.430E+09	2.866E+09	0.000E+00	0.000E+00	0.000E+00
1.5	2.531E+09	1.183E+09	2.412E+09	2.941E+09	7.069E+08	1.503E+09	3.352E+08	1.004E+09	1.594E+09	1.052E+09	1.679E+09	1.990E+08
2.5	2.278E+09	1.535E+09	3.034E+09	3.228E+09	1.090E+09	1.603E+09	2.989E+08	7.348E+08	1.125E+09	9.081E+08	1.033E+09	2.098E+08
3.5	2.208E+09	1.725E+09	3.365E+09	3.449E+09	1.332E+09	1.683E+09	2.393E+08	5.491E+08	8.284E+08	7.166E+08	7.095E+08	1.818E+08
4.5	2.181E+09	1.839E+09	3.568E+09	3.599E+09	1.491E+09	1.740E+09	1.883E+08	4.184E+08	6.261E+08	5.594E+08	5.144E+08	1.495E+08
5.5	2.164E+09	1.907E+09	3.692E+09	3.694E+09	1.596E+09	1.777E+09	1.489E+08	3.252E+08	4.839E+08	4.402E+08	3.869E+08	1.214E+08
6.5	2.148E+09	1.946E+09	3.764E+09	3.747E+09	1.664E+09	1.796E+09	1.192E+08	2.575E+08	3.817E+08	3.509E+08	2.993E+08	9.889E+07
7.5	2.129E+09	1.963E+09	3.801E+09	3.770E+09	1.706E+09	1.803E+09	9.682E+07	2.075E+08	3.066E+08	2.838E+08	2.371E+08	8.118E+07
8.5	2.107E+09	1.967E+09	3.810E+09	3.768E+09	1.729E+09	1.800E+09	7.974E+07	1.697E+08	2.505E+08	2.327E+08	1.914E+08	6.731E+07
9.5	2.081E+09	1.960E+09	3.800E+09	3.749E+09	1.738E+09	1.788E+09	6.656E+07	1.408E+08	2.076E+08	1.933E+08	1.571E+08	5.638E+07
10.5	2.053E+09	1.944E+09	3.773E+09	3.714E+09	1.736E+09	1.769E+09	5.623E+07	1.182E+08	1.743E+08	1.625E+08	1.308E+08	4.770E+07
11.5	2.021E+09	1.922E+09	3.733E+09	3.667E+09	1.725E+09	1.745E+09	4.805E+07	1.003E+08	1.480E+08	1.380E+08	1.102E+08	4.073E+07
12.5	1.986E+09	1.894E+09	3.682E+09	3.609E+09	1.707E+09	1.715E+09	4.148E+07	8.595E+07	1.270E+08	1.183E+08	9.388E+07	3.508E+07
13.5	1.947E+09	1.861E+09	3.622E+09	3.542E+09	1.682E+09	1.681E+09	3.617E+07	7.430E+07	1.100E+08	1.022E+08	8.072E+07	3.046E+07
14.5	1.907E+09	1.823E+09	3.552E+09	3.466E+09	1.652E+09	1.642E+09	3.182E+07	6.474E+07	9.613E+07	8.910E+07	7.000E+07	2.666E+07
15.5	1.863E+09	1.782E+09	3.475E+09	3.383E+09	1.617E+09	1.600E+09	2.825E+07	5.683E+07	8.470E+07	7.823E+07	6.117E+07	2.350E+07
16.5	1.816E+09	1.737E+09	3.390E+09	3.293E+09	1.578E+09	1.555E+09	2.529E+07	5.025E+07	7.522E+07	6.917E+07	5.385E+07	2.087E+07
17.5	1.767E+09	1.690E+09	3.300E+09	3.197E+09	1.536E+09	1.507E+09	2.284E+07	4.474E+07	6.732E+07	6.159E+07	4.774E+07	1.867E+07
18.5	1.716E+09	1.639E+09	3.203E+09	3.096E+09	1.489E+09	1.456E+09	2.081E+07	4.010E+07	6.072E+07	5.521E+07	4.260E+07	1.682E+07
19.5	1.662E+09	1.586E+09	3.100E+09	2.989E+09	1.440E+09	1.402E+09	1.913E+07	3.618E+07	5.518E+07	4.983E+07	3.827E+07	1.527E+07
20.5	1.606E+09	1.530E+09	2.993E+09	2.877E+09	1.388E+09	1.346E+09	1.773E+07	3.285E+07	5.052E+07	4.528E+07	3.460E+07	1.397E+07
21.5	1.548E+09	1.471E+09	2.880E+09	2.761E+09	1.334E+09	1.288E+09	1.658E+07	3.003E+07	4.661E+07	4.143E+07	3.148E+07	1.287E+07
22.5	1.488E+09	1.411E+09	2.764E+09	2.641E+09	1.277E+09	1.228E+09	1.564E+07	2.762E+07	4.332E+07	3.816E+07	2.882E+07	1.195E+07
23.5	1.426E+09	1.349E+09	2.643E+09	2.517E+09	1.218E+09	1.167E+09	1.488E+07	2.555E+07	4.054E+07	3.538E+07	2.655E+07	1.117E+07
24.5	1.363E+09	1.285E+09	2.519E+09	2.390E+09	1.158E+09	1.104E+09	1.426E+07	2.377E+07	3.819E+07	3.301E+07	2.460E+07	1.052E+07
25.5	1.297E+09	1.219E+09	2.392E+09	2.260E+09	1.096E+09	1.040E+09	1.376E+07	2.223E+07	3.620E+07	3.097E+07	2.293E+07	9.963E+06
26.5	1.231E+09	1.153E+09	2.262E+09	2.128E+09	1.032E+09	9.748E+08	1.336E+07	2.088E+07	3.449E+07	2.921E+07	2.147E+07	9.489E+06
27.5	1.163E+09	1.085E+09	2.130E+09	1.995E+09	9.679E+08	9.091E+08	1.303E+07	1.968E+07	3.300E+07	2.767E+07	2.019E+07	9.077E+06
28.5	1.094E+09	1.016E+09	1.996E+09	1.860E+09	9.028E+08	8.430E+08	1.276E+07	1.859E+07	3.168E+07	2.630E+07	1.905E+07	8.708E+06
29.5	1.025E+09	9.467E+08	1.861E+09	1.724E+09	8.373E+08	7.767E+08	1.252E+07	1.759E+07	3.047E+07	2.505E+07	1.802E+07	8.366E+06
30.5	9.550E+08	8.771E+08	1.725E+09	1.588E+09	7.716E+08	7.106E+08	1.229E+07	1.664E+07	2.932E+07	2.387E+07	1.707E+07	8.036E+06
31.5	8.847E+08	8.074E+08	1.589E+09	1.452E+09	7.059E+08	6.449E+08	1.206E+07	1.571E+07	2.818E+07	2.272E+07	1.616E+07	7.702E+06
32.5	8.143E+08	7.378E+08	1.453E+09	1.317E+09	6.407E+08	5.800E+08	1.180E+07	1.479E+07	2.701E+07	2.156E+07	1.528E+07	7.351E+06
33.5	7.442E+08	6.688E+08	1.319E+09	1.184E+09	5.762E+08	5.162E+08	1.150E+07	1.385E+07	2.577E+07	2.037E+07	1.439E+07	6.971E+06
34.5	6.746E+08	6.006E+08	1.185E+09	1.053E+09	5.128E+08	4.539E+08	1.114E+07	1.287E+07	2.444E+07	1.912E+07	1.349E+07	6.551E+06
35.5	6.058E+08	5.336E+08	1.054E+09	9.252E+08	4.509E+08	3.935E+08	1.071E+07	1.185E+07	2.298E+07	1.778E+07	1.255E+07	6.085E+06
36.5	5.382E+08	4.681E+08	9.261E+08	8.012E+08	3.909E+08	3.355E+08	1.019E+07	1.078E+07	2.138E+07	1.633E+07	1.157E+07	5.569E+06
37.5	4.723E+08	4.047E+08	8.020E+08	6.821E+08	3.333E+08	2.803E+08	9.572E+06	9.657E+06	1.962E+07	1.478E+07	1.053E+07	5.002E+06
38.5	4.083E+08	3.438E+08	6.829E+08	5.689E+08	2.785E+08	2.286E+08	8.859E+06	8.484E+06	1.770E+07	1.313E+07	9.441E+06	4.389E+06
39.5	3.469E+08	2.860E+08	5.695E+08	4.627E+08	2.271E+08	1.809E+08	8.050E+06	7.274E+06	1.564E+07	1.138E+07	8.300E+06	3.738E+06
0.5	0.000E+00	0.000E+00	0.000E+00	1.801E+09	0.000E+00	8.928E+08	0.000E+00	9.007E+09	1.809E+09	0.000E+00	0.000E+00	0.000E+00
1.5	1.592E+09	7.386E+08	1.506E+09	1.838E+09	4.373E+08	9.343E+08	2.186E+08	6.370E+09	1.021E+09	6.702E+08	1.066E+09	1.271E+08
2.5	1.433E+09	9.598E+08	1.891E+09	2.011E+09	6.722E+08	9.900E+08	1.976E+08	4.692E+09	7.281E+08	5.817E+08	6.670E+08	1.345E+08
3.5	1.390E+09	1.081E+09	2.096E+09	2.144E+09	8.187E+08	1.034E+09	1.600E+08	3.523E+09	5.410E+08	4.605E+08	4.563E+08	1.167E+08
4.5	1.374E+09	1.153E+09	2.218E+09	2.232E+09	9.128E+08	1.063E+09	1.271E+08	2.692E+09	4.114E+08	3.598E+08	3.320E+08	9.583E+07
5.5	1.363E+09	1.196E+09	2.291E+09	2.284E+09	9.724E+08	1.079E+09	1.011E+08	2.093E+09	3.192E+08	2.827E+08	2.500E+08	7.754E+07
6.5	1.352E+09	1.220E+09	2.329E+09	2.308E+09	1.008E+09	1.083E+09	8.134E+07	1.656E+09	2.523E+08	2.247E+08	1.933E+08	6.276E+07
7.5	1.338E+09	1.229E+09	2.343E+09	2.312E+09	1.027E+09	1.079E+09	6.625E+07	1.330E+09	2.028E+08	1.808E+08	1.528E+08	5.110E+07
8.5	1.322E+09	1.228E+09	2.338E+09	2.298E+09	1.033E+09	1.067E+09	5.464E+07	1.084E+09	1.654E+08	1.473E+08	1.230E+08	4.196E+07
9.5	1.302E+09	1.220E+09	2.318E+09	2.272E+09	1.030E+09	1.050E+09	4.562E+07	8.941E+09	1.368E+08	1.214E+08	1.005E+08	3.474E+07
10.5	1.280E+09	1.205E+09	2.288E+09	2.235E+09	1.018E+09	1.028E+09	3.851E+07	7.457E+09	1.145E+08	1.011E+08	8.317E+07	2.901E+07
11.5	1.255E+09	1.186E+09	2.247E+09	2.188E+09	1.001E+09	1.001E+09	3.284E+07	6.279E+09	9.675E+07	8.495E+07	6.961E+07	2.441E+07
12.5	1.226E+09	1.161E+09	2.198E+09	2.134E+09	9.789E+08	9.713E+08	2.826E+07	5.332E+09	8.255E+07	7.197E+07	5.882E+07	2.069E+07
13.5	1.196E+09	1.134E+09	2.142E+09	2.073E+09	9.522E+08	9.383E+08	2.454E+07	4.562E+09	7.101E+07	6.141E+07	5.011E+07	1.765E+07
14.5	1.163E+09	1.102E+09	2.079E+09	2.006E+09	9.220E+08	9.026E+08	2.147E+07	3.930E+09	6.156E+07	5.274E+07	4.301E+07	1.514E+07
15.5	1.127E+09	1.068E+09	2.011E+09	1.933E+09	8.885E+08	8.646E+08	1.894E+07	3.405E+09	5.393E+07	4.556E+07	3.715E+07	1.306E+07
16.5	1.089E+09	1.031E+09	1.938E+09	1.856E+09	8.524E+08	8.244E+08	1.683E+07	2.968E+09	4.722E+07	3.958E+07	3.228E+07	1.133E+07
17.5	1.050E+09	9.919E+08	1.860E+09	1.775E+09	8.138E+08	7.825E+08	1.506E+07	2.600E+09	4.176E+07	3.455E+07	2.821E+07	9.875E+06
18.5	1.008E+09	9.504E+08	1.778E+09	1.689E+09	7.733E+08	7.391E+08	1.358E+07	2.289E+09	3.715E+07	3.031E+07	2.477E+07	8.648E+06
19.5	9.644E+08	9.068E+08	1.692E+09	1.601E+09	7.311E+08	6.945E+08	1.233E+07	2.025E+09	3.325E+07	2.671E+07	2.185E+07	7.607E+06
20.5	9.191E+08	8.616E+08	1.603E+09	1.510E+09	6.875E+08	6.489E+08	1.128E+07	1.799E+09	2.992E+07	2.364E+07	1.937E+07	6.720E+06
21.5	8.724E+08	8.148E+08	1.511E+09	1.416E+09	6.427E+08	6.025E+08	1.038E+07	1.604E+09	2.708E+07	2.100E+07	1.724E+07	5.960E+06
22.5	8.243E+08	7.666E+08	1.418E+09	1.320E+09	5.972E+08	5.558E+08	9.624E+06	1.436E+09	2.463E+07	1.873E+07	1.540E+07	5.304E+06
23.5	7.751E+08	7.174E+08	1.322E+09	1.224E+09	5.511E+08	5.089E+08	8.975E+06	1.289E+09	2.251E+07	1.676E+07	1.381E+07	4.733E+06
24.5	7.250E+08	6.674E+08	1.225E+09	1.126E+09	5.048E+08	4.622E+08	8.415E+06	1.159E+09	2.640E+07	1.503E+07	1.241E+07	4.231E+06
25.5	6.741E+08	6.167E+08	1.127E+09	1.029E+09	4.586E+08	4.159E+08	7.925E+06	1.044E+09	1.899E+07	1.350E+07	1.118E+07	3.785E+06
26.5	6.227E+08	5.658E+08	1.030E+09	9.317E+08	4.129E+08	3.706E+08	7.488E+06	9.407E+09	1.750E+07	1.212E+07	1.009E+07	3.382E+06
27.5	5.711E+08	5.150E+08	9.325E+08	8.358E+08	3.679E+08	3.264E+08	7.088E+06	8.462E+09	1.614E+07	1.088E+07	9.097E+06	3.013E+06
28.5	5.197E+08	4.645E+08	8.365E+08	7.419E+08	3.241E+08	2.838E+08	6.711E+06	7.589E+09	1.486E+07	9.727E+06	8.193E+06	2.669E+06
29.5	4.687E+08	4.148E+08	7.425E+08	6.507E+08	2.819E+08	2.432E+08	6.344E+06	6.771E+09	1.365E+07	8.654E+06	7.356E+06	2.345E+06
30.5	4.185E+08	3.663E+08	6.513E+08	5.631E+08	2.416E+08	2.050E+08	5.976E+06	5.998E+09	1.247E+07	7.641E+06	6.571E+06	2.037E+06
31.5	3.695E+08	3.194E+08	5.636E+08	4.798E+08	2.036E+08	1.694E+08	5.597E+06	5.260E+09	1.131E+07	6.674E+06	5.826E+06	1.741E+06
32.5	3.221E+08	2.745E+08	4.802E+08	4.017E+08	1.683E+08	1.369E+08	5.201E+06	4.555E+09	1.016E+07	5.750E+06	5.116E+06	1.458E+06
33.5	2.769E+08	2.321E+08	4.021E+08	3.295E+08	1.360E+08	1.077E+08	4.783E+06	3.880E+09	9.013E+06	4.865E+06	4.434E+06	1.189E+06
34.5	2.341E+08	1.925E+08	3.298E+08	2.638E+08	1.070E+08	8.199E+07	4.341E+06	3.237E+09	7.868E+06	4.022E+06	3.781E+06	9.362E+05
35.5	1.942E+08	1.561E+08	2.640E+08	2.050E+08	8.146E+07	5.979E+07	3.876E+06	2.629E+09	6.731E+06	3.225E+06	3.157E+06	7.026E+05
36.5	1.575E+08	1.232E+08	2.052E+08	1.534E+08	5.941E+07	4.114E+07	3.391E+06	2.059E+09	5.612E+06	2.484E+06	2.566E+06	4.926E+05
37.5	1.243E+08	9.384E+07	1.535E+08	1.090E+08	4.088E+07	0.000E+00	2.892E+06	1.536E+09	4.524E+06	1.809E+06	2.012E+06	0.000E+00
0.5	0.000E+00	0.000E+00	0.000E+00	7.011E+08	0.000E+00	3.538E+08	0.000E+00	3.506E+08	6.979E+08	0.000E+00	0.000E+00	0.000E+00
1.5	6.163E+08	2.871E+08	5.911E+08	7.229E+08	1.754E+08	3.766E+08	8.086E+07	2.469E+08	3.869E+08	2.611E+08	4.114E+08	5.032E+07
2.5	5.529E+08	3.719E+08	7.457E+08	7.973E+08	2.731E+08	4.059E+08	7.151E+07	1.815E+08	2.725E+08	2.275E+08	2.539E+08	5.388E+07
3.5	5.351E+08	4.181E+08	8.312E+08	8.570E+08	3.373E+08	4.315E+08	5.688E+07	1.365E+08	2.007E+08	1.815E+08	1.752E+08	4.746E+07
4.5	5.285E+08	4.463E+08	8.865E+08	9.013E+08	3.822E+08	4.523E+08	4.454E+07	1.048E+08	1.519E+08	1.434E+08	1.278E+08	3.975E+07
5.5	5.251E+08	4.642E+08	9.245E+08	9.336E+08	4.147E+08	4.688E+08	3.510E+07	8.220E+07	1.178E+08	1.144E+08	9.688E+07	3.292E+07
6.5	5.227E+08	4.757E+08	9.514E+08	9.574E+08	4.390E+08	4.820E+08	2.805E+07	6.580E+07	9.333E+07	9.259E+07	7.566E+07	2.738E+07
7.5	5.206E+08	4.832E+08	9.710E+08	9.751E+08	4.577E+08	4.927E+08	2.278E+07	5.349E+07	7.546E+07	7.615E+07	6.057E+07	2.298E+07
8.5	5.184E+08	4.879E+08	9.857E+08	9.885E+08	4.724E+08	5.014E+08	1.879E+07	4.453E+07	6.213E+07	6.359E+07	4.951E+07	1.950E+07
9.5	5.163E+08	4.908E+08	9.968E+08	9.987E+08	4.842E+08	5.087E+08	1.574E+07	3.751E+07	5.199E+07	5.386E+07	4.122E+07	1.674E+07
10.5	5.141E+08	4.925E+08	1.005E+09	1.007E+09	4.939E+08	5.147E+08	1.337E+07	3.203E+07	4.415E+07	4.622E+07	3.485E+07	1.454E+07
11.5	5.118E+08	4.932E+08	1.012E+09	1.012E+09	5.018E+08	5.197E+08	1.150E+07	2.770E+07	3.799E+07	4.013E+07	2.987E+07	1.275E+07
12.5	5.096E+08	4.932E+08	1.017E+09	1.017E+09	5.084E+08	5.239E+08	1.002E+07	2.422E+07	3.308E+07	3.523E+07	2.592E+07	1.130E+07
13.5	5.073E+08	4.927E+08	1.020E+09	1.020E+09	5.139E+08	5.273E+08	8.828E+06	2.140E+07	2.914E+07	3.123E+07	2.274E+07	1.011E+07
14.5	5.049E+08	4.918E+08	1.023E+09	1.022E+09	5.183E+08	5.299E+08	7.867E+06	1.909E+07	2.593E+07	2.795E+07	2.016E+07	9.123E+06
15.5	5.025E+08	4.905E+08	1.025E+09	1.023E+09	5.219E+08	5.318E+08	7.087E+06	1.718E+07	2.331E+07	2.524E+07	1.804E+07	8.306E+06
16.5	5.000E+08	4.889E+08	1.025E+09	1.023E+09	5.245E+08	5.330E+08	6.452E+06	1.561E+07	2.117E+07	2.299E+07	1.628E+07	7.626E+06
17.5	4.974E+08	4.870E+08	1.025E+09	1.022E+09	5.263E+08	5.334E+08	5.938E+06	1.429E+07	1.940E+07	2.111E+07	1.483E+07	7.061E+06
18.5	4.946E+08	4.847E+08	1.023E+09	1.019E+09	5.273E+08	5.330E+08	5.524E+06	1.320E+07	1.796E+07	1.955E+07	1.361E+07	6.594E+06
19.5	4.916E+08	4.820E+08	1.021E+09	1.016E+09	5.274E+08	5.317E+08	5.195E+06	1.229E+07	1.678E+07	1.825E+07	1.260E+07	6.211E+06
20.5	4.884E+08	4.790E+08	1.017E+09	1.011E+09	5.265E+08	5.296E+08	4.939E+06	1.154E+07	1.582E+07	1.717E+07	1.176E+07	5.900E+06
21.5	4.849E+08	4.756E+08	1.012E+09	1.005E+09	5.247E+08	5.264E+08	4.747E+06	1.093E+07	1.506E+07	1.630E+07	1.106E+07	5.655E+06
22.5	4.810E+08	4.716E+08	1.006E+09	9.971E+08	5.219E+08	5.222E+08	4.613E+06	1.043E+07	1.448E+07	1.559E+07	1.049E+07	5.466E+06
23.5	4.767E+08	4.672E+08	9.982E+08	9.878E+08	5.179E+08	5.168E+08	4.529E+06	1.003E+07	1.404E+07	1.504E+07	1.030E+07	5.329E+06
24.5	4.719E+08	4.621E+08	9.888E+08	9.766E+08	5.128E+08	5.102E+08	4.492E+06	9.716E+06	1.374E+07	1.462E+07	9.657E+06	5.237E+06
25.5	4.666E+08	4.563E+08	9.776E+08	9.635E+08	5.064E+08	5.023E+08	4.497E+06	9.477E+06	1.355E+07	1.432E+07	9.369E+06	5.185E+06
26.5	4.606E+08	4.498E+08	9.643E+08	9.482E+08	4.986E+08	4.929E+08	4.541E+06	9.303E+06	1.346E+07	1.411E+07	9.152E+06	5.169E+06
27.5	4.539E+08	4.424E+08	9.490E+08	9.305E+08	4.894E+08	4.820E+08	4.618E+06	9.181E+06	1.346E+07	1.399E+07	8.995E+06	5.182E+06
28.5	4.464E+08	4.341E+08	9.313E+08	9.103E+08	4.787E+08	4.696E+08	4.727E+06	9.102E+06	1.354E+07	1.395E+07	8.888E+06	5.218E+06
29.5	4.380E+08	4.249E+08	9.111E+08	8.874E+08	4.664E+08	4.555E+08	4.862E+06	9.054E+06	1.367E+07	1.395E+07	8.822E+06	5.271E+06
30.5	4.286E+08	4.145E+08	8.881E+08	8.616E+08	4.524E+08	4.396E+08	5.019E+06	9.028E+06	1.385E+07	1.399E+07	8.786E+06	5.333E+06
31.5	4.180E+08	4.029E+08	8.624E+08	8.329E+08	4.367E+08	4.220E+08	5.193E+06	9.012E+06	1.406E+07	1.405E+07	8.770E+06	5.396E+06
32.5	4.064E+08	3.901E+08	8.337E+08	8.011E+08	4.193E+08	4.025E+08	5.378E+06	8.992E+06	1.428E+07	1.411E+07	8.763E+06	5.449E+06
33.5	3.934E+08	3.759E+08	8.018E+08	7.658E+08	3.999E+08	3.810E+08	5.566E+06	8.954E+06	1.448E+07	1.414E+07	8.753E+06	5.480E+06
34.5	3.791E+08	3.601E+08	7.665E+08	7.268E+08	3.785E+08	3.571E+08	5.751E+06	8.883E+06	1.466E+07	1.411E+07	8.724E+06	5.471E+06
35.5	3.633E+08	3.427E+08	7.275E+08	6.833E+08	3.548E+08	3.304E+08	5.925E+06	8.753E+06	1.476E+07	1.399E+07	8.662E+06	5.403E+06
36.5	3.457E+08	3.233E+08	6.840E+08	6.344E+08	3.283E+08	3.001E+08	6.060E+06	8.536E+06	1.476E+07	1.371E+07	8.544E+06	5.243E+06
37.5	3.261E+08	3.012E+08	6.351E+08	5.786E+08	2.982E+08	0.000E+00	6.155E+06	8.191E+06	1.460E+07	1.322E+07	8.339E+06	0.000E+00
