0.5 	0.000E+00	0.000E+00	0.000E+00	4.813E+05	0.000E+00	1.207E+05	0.000E+00	1.203E+05	4.381E+05	0.000E+00	0.000E+00	0.000E+00
1.5 	8.588E+05	3.957E+05	4.105E+05	4.951E+05	8.072E+04	1.703E+05	1.118E+05	1.127E+05	2.666E+05	1.802E+05	5.714E+05	2.294E+04
2.5 	5.770E+05	3.839E+05	5.156E+05	5.435E+05	1.403E+05	2.049E+05	7.429E+04	9.278E+04	1.875E+05	1.558E+05	2.633E+05	2.733E+04
3.5 	4.949E+05	3.823E+05	5.711E+05	5.803E+05	1.831E+05	2.301E+05	5.252E+04	7.392E+04	1.376E+05	1.231E+05	1.605E+05	2.537E+04
4.5 	4.562E+05	3.804E+05	6.044E+05	6.049E+05	2.138E+05	2.484E+05	3.847E+04	5.862E+04	1.036E+05	9.626E+04	1.089E+05	2.183E+04
5.5 	4.324E+05	3.771E+05	6.243E+05	6.200E+05	2.357E+05	2.612E+05	2.898E+04	4.679E+04	7.972E+04	7.583E+04	7.849E+04	1.832E+04
6.5 	4.151E+05	3.721E+05	6.352E+05	6.279E+05	2.511E+05	2.700E+05	2.238E+04	3.776E+04	6.258E+04	6.052E+04	5.892E+04	1.529E+04
7.5 	4.009E+05	3.660E+05	6.399E+05	6.303E+05	2.617E+05	2.756E+05	1.765E+04	3.084E+04	5.002E+04	4.898E+04	4.560E+04	1.280E+04
8.5 	3.883E+05	3.590E+05	6.398E+05	6.285E+05	2.687E+05	2.786E+05	1.419E+04	2.548E+04	4.064E+04	4.018E+04	3.615E+04	1.078E+04
9.5 	3.767E+05	3.512E+05	6.363E+05	6.235E+05	2.729E+05	2.796E+05	1.159E+04	2.129E+04	3.348E+04	3.338E+04	2.923E+04	9.145E+03
10.5 	3.655E+05	3.428E+05	6.298E+05	6.157E+05	2.748E+05	2.789E+05	9.608E+03	1.797E+04	2.794E+04	2.805E+04	2.401E+04	7.821E+03
11.5 	3.546E+05	3.339E+05	6.210E+05	6.057E+05	2.748E+05	2.768E+05	8.065E+03	1.530E+04	2.358E+04	2.380E+04	2.000E+04	6.739E+03
12.5 	3.438E+05	3.245E+05	6.103E+05	5.938E+05	2.733E+05	2.734E+05	6.847E+03	1.314E+04	2.010E+04	2.039E+04	1.685E+04	5.849E+03
13.5 	3.329E+05	3.147E+05	5.977E+05	5.803E+05	2.704E+05	2.689E+05	5.875E+03	1.137E+04	1.729E+04	1.761E+04	1.434E+04	5.112E+03
14.5 	3.219E+05	3.046E+05	5.837E+05	5.654E+05	2.664E+05	2.635E+05	5.090E+03	9.902E+03	1.500E+04	1.532E+04	1.232E+04	4.498E+03
15.5 	3.108E+05	2.942E+05	5.683E+05	5.491E+05	2.613E+05	2.572E+05	4.450E+03	8.685E+03	1.311E+04	1.342E+04	1.049E+04	3.983E+03
16.5 	2.996E+05	2.834E+05	5.517E+05	5.317E+05	2.553E+05	2.501E+05	3.927E+03	7.665E+03	1.155E+04	1.184E+04	9.308E+03	3.549E+03
17.5 	2.882E+05	2.724E+05	5.340E+05	5.133E+05	2.484E+05	2.423E+05	3.495E+03	6.806E+03	1.026E+04	1.051E+04	8.178E+03	3.183E+03
18.5 	2.766E+05	2.612E+05	5.154E+05	4.939E+05	2.409E+05	2.339E+05	3.138E+03	6.080E+03	9.171E+03	9.395E+03	7.234E+03	2.874E+03
19.5 	2.649E+05	2.497E+05	4.958E+05	4.738E+05	2.327E+05	2.249E+05	2.843E+03	5.464E+03	8.260E+03	8.449E+03	6.440E+03	2.611E+03
20.5 	2.531E+05	2.381E+05	4.755E+05	4.530E+05	2.239E+05	2.155E+05	2.598E+03	4.940E+03	7.494E+03	7.646E+03	5.770E+03	2.389E+03
21.5 	2.412E+05	2.264E+05	4.545E+05	4.315E+05	2.145E+05	2.056E+05	2.395E+03	4.491E+03	6.848E+03	6.964E+03	5.201E+03	2.200E+03
22.5 	2.291E+05	2.145E+05	4.330E+05	4.096E+05	2.048E+05	1.954E+05	2.226E+03	4.107E+03	6.302E+03	6.382E+03	4.718E+03	2.040E+03
23.5 	2.170E+05	2.025E+05	4.109E+05	3.872E+05	1.946E+05	1.848E+05	2.086E+03	3.776E+03	5.838E+03	5.885E+03	4.305E+03	1.904E+03
24.5 	2.048E+05	1.906E+05	3.884E+05	3.645E+05	1.841E+05	1.740E+05	1.970E+03	3.489E+03	5.442E+03	5.457E+03	3.950E+03	1.787E+03
25.5 	1.927E+05	1.786E+05	3.656E+05	3.417E+05	1.734E+05	1.630E+05	1.873E+03	3.238E+03	5.101E+03	5.088E+03	3.643E+03	1.688E+03
26.5 	1.805E+05	1.666E+05	3.427E+05	3.187E+05	1.624E+05	1.518E+05	1.790E+03	3.016E+03	4.805E+03	4.765E+03	3.375E+03	1.601E+03
27.5 	1.684E+05	1.548E+05	3.196E+05	2.957E+05	1.514E+05	1.406E+05	1.720E+03	2.818E+03	4.544E+03	4.480E+03	3.140E+03	1.524E+03
28.5 	1.564E+05	1.430E+05	2.965E+05	2.727E+05	1.402E+05	1.294E+05	1.658E+03	2.638E+03	4.308E+03	4.222E+03	2.929E+03	1.454E+03
29.5 	1.445E+05	1.314E+05	2.735E+05	2.500E+05	1.290E+05	1.182E+05	1.601E+03	2.470E+03	4.091E+03	3.985E+03	2.738E+03	1.388E+03
30.5 	1.328E+05	1.200E+05	2.508E+05	2.276E+05	1.179E+05	1.072E+05	1.546E+03	2.312E+03	3.884E+03	3.762E+03	2.562E+03	1.323E+03
31.5 	1.212E+05	1.088E+05	2.283E+05	2.056E+05	1.069E+05	9.632E+04	1.492E+03	2.158E+03	3.682E+03	3.544E+03	2.395E+03	1.258E+03
32.5 	1.100E+05	9.795E+04	2.062E+05	1.841E+05	9.603E+04	8.570E+04	1.435E+03	2.007E+03	3.479E+03	3.328E+03	2.234E+03	1.190E+03
33.5 	9.898E+04	8.740E+04	1.846E+05	1.633E+05	8.543E+04	7.540E+04	1.374E+03	1.855E+03	3.271E+03	3.108E+03	2.075E+03	1.117E+03
34.5 	8.832E+04	7.721E+04	1.637E+05	1.431E+05	7.516E+04	6.548E+04	1.308E+03	1.702E+03	3.054E+03	2.880E+03	1.917E+03	1.039E+03
35.5 	7.803E+04	6.745E+04	1.435E+05	1.239E+05	6.526E+04	5.601E+04	1.234E+03	1.544E+03	2.826E+03	2.643E+03	1.757E+03	9.537E+02
36.5 	6.816E+04	5.814E+04	1.242E+05	1.056E+05	5.582E+04	4.707E+04	1.152E+03	1.384E+03	2.585E+03	2.394E+03	1.594E+03	8.617E+02
37.5 	5.876E+04	4.936E+04	1.058E+05	8.837E+04	4.691E+04	3.874E+04	1.061E+03	1.219E+03	2.330E+03	2.134E+03	1.427E+03	7.632E+02
38.5 	4.989E+04	4.114E+04	8.859E+04	7.241E+04	3.859E+04	3.108E+04	9.628E+02	1.053E+03	2.064E+03	1.865E+03	1.257E+03	6.597E+02
39.5 	4.158E+04	3.354E+04	7.258E+04	5.780E+04	3.095E+04	2.415E+04	8.568E+02	8.864E+02	1.789E+03	1.590E+03	1.085E+03	5.528E+02
0.5 	0.000E+00	0.000E+00	0.000E+00	2.870E+05	0.000E+00	7.155E+04	0.000E+00	7.175E+05	2.874E+05	0.000E+00	0.000E+00	0.000E+00
1.5 	5.117E+05	2.340E+05	2.428E+05	2.930E+05	4.729E+04	1.002E+05	6.905E+04	6.769E+05	1.617E+05	1.087E+05	3.438E+05	1.387E+04
2.5 	3.438E+05	2.274E+05	3.044E+05	3.206E+05	8.190E+04	1.198E+05	4.652E+04	5.609E+05	1.150E+05	9.449E+04	1.595E+05	1.659E+04
3.5 	2.951E+05	2.268E+05	3.368E+05	3.415E+05	1.065E+05	1.338E+05	3.327E+04	4.490E+05	8.514E+04	7.491E+04	9.779E+04	1.542E+04
4.5 	2.721E+05	2.259E+05	3.559E+05	3.551E+05	1.239E+05	1.435E+05	2.459E+04	3.569E+05	6.448E+04	5.860E+04	6.657E+04	1.324E+04
5.5 	2.580E+05	2.240E+05	3.668E+05	3.628E+05	1.359E+05	1.500E+05	1.865E+04	2.851E+05	4.980E+04	4.609E+04	4.803E+04	1.106E+04
6.5 	2.475E+05	2.209E+05	3.720E+05	3.660E+05	1.439E+05	1.539E+05	1.447E+04	2.297E+05	3.917E+04	3.665E+04	3.603E+04	9.172E+03
7.5 	2.387E+05	2.169E+05	3.733E+05	3.656E+05	1.490E+05	1.558E+05	1.145E+04	1.871E+05	3.132E+04	2.951E+04	2.782E+04	7.611E+03
8.5 	2.307E+05	2.122E+05	3.714E+05	3.625E+05	1.518E+05	1.561E+05	9.213E+03	1.539E+05	2.541E+04	2.404E+04	2.198E+04	6.345E+03
9.5 	2.232E+05	2.069E+05	3.672E+05	3.572E+05	1.528E+05	1.551E+05	7.528E+03	1.278E+05	2.088E+04	1.981E+04	1.768E+04	5.320E+03
10.5 	2.158E+05	2.011E+05	3.611E+05	3.501E+05	1.523E+05	1.529E+05	6.232E+03	1.071E+05	1.736E+04	1.649E+04	1.444E+04	4.488E+03
11.5 	2.084E+05	1.949E+05	3.533E+05	3.415E+05	1.506E+05	1.499E+05	5.220E+03	9.049E+05	1.458E+04	1.384E+04	1.194E+04	3.810E+03
12.5 	2.009E+05	1.882E+05	3.442E+05	3.316E+05	1.479E+05	1.460E+05	4.417E+03	7.697E+05	1.235E+04	1.171E+04	9.976E+03	3.251E+03
13.5 	1.933E+05	1.813E+05	3.339E+05	3.207E+05	1.444E+05	1.415E+05	3.773E+03	6.589E+05	1.055E+04	9.974E+03	8.411E+03	2.790E+03
14.5 	1.856E+05	1.741E+05	3.226E+05	3.087E+05	1.401E+05	1.364E+05	3.251E+03	5.672E+05	9.075E+03	8.548E+03	7.147E+03	2.405E+03
15.5 	1.778E+05	1.666E+05	3.104E+05	2.959E+05	1.352E+05	1.308E+05	2.823E+03	4.908E+05	7.858E+03	7.366E+03	6.115E+03	2.083E+03
16.5 	1.698E+05	1.588E+05	2.941E+05	2.825E+05	1.298E+05	1.247E+05	2.471E+03	4.267E+05	6.848E+03	6.379E+03	5.263E+03	1.811E+03
17.5 	1.616E+05	1.509E+05	2.838E+05	2.684E+05	1.239E+05	1.183E+05	2.179E+03	3.727E+05	6.003E+03	5.550E+03	4.555E+03	1.582E+03
18.5 	1.534E+05	1.429E+05	2.695E+05	2.538E+05	1.176E+05	1.116E+05	1.935E+03	3.268E+05	5.293E+03	4.850E+03	3.962E+03	1.386E+03
19.5 	1.450E+05	1.347E+05	2.548E+05	2.387E+05	1.110E+05	1.046E+05	1.731E+03	2.877E+05	4.692E+03	4.255E+03	3.463E+03	1.220E+03
20.5 	1.365E+05	1.264E+05	2.397E+05	2.231E+05	1.041E+05	9.744E+04	1.560E+03	2.542E+05	4.182E+03	3.748E+03	3.039E+03	1.077E+03
21.5 	1.280E+05	1.180E+05	2.242E+05	2.079E+05	9.699E+04	9.014E+04	1.415E+03	2.254E+05	3.746E+03	3.312E+03	2.678E+03	9.536E+02
22.5 	1.195E+05	1.096E+05	2.086E+05	1.922E+05	8.975E+04	8.277E+04	1.291E+03	2.004E+05	3.371E+03	2.936E+03	2.368E+03	8.468E+02
23.5 	1.109E+05	1.013E+05	1.929E+05	1.765E+05	8.244E+04	7.538E+04	1.186E+03	1.786E+05	3.046E+03	2.610E+03	2.101E+03	7.534E+02
24.5 	1.024E+05	9.296E+04	1.771E+05	1.609E+05	7.510E+04	6.805E+04	1.095E+03	1.594E+05	2.762E+03	2.324E+03	1.868E+03	6.710E+02
25.5 	9.401E+04	8.475E+04	1.614E+05	1.455E+05	6.781E+04	6.083E+04	1.015E+03	1.423E+05	2.511E+03	2.071E+03	1.664E+03	5.975E+02
26.5 	8.568E+04	7.668E+04	1.459E+05	1.304E+05	6.062E+04	5.379E+04	9.434E+02	1.270E+05	2.285E+03	1.845E+03	1.484E+03	5.310E+02
27.5 	7.750E+04	6.879E+04	1.308E+05	1.156E+05	5.361E+04	4.699E+04	8.784E+02	1.131E+05	2.080E+03	1.641E+03	1.322E+03	4.701E+02
28.5 	6.952E+04	6.141E+04	1.160E+05	1.014E+05	4.683E+04	4.048E+04	8.178E+02	1.003E+05	1.890E+03	1.453E+03	1.176E+03	4.135E+02
29.5 	6.178E+04	5.377E+04	1.017E+05	8.785E+04	4.035E+04	3.435E+04	7.600E+02	8.850E+05	1.711E+03	1.280E+03	1.042E+03	3.604E+02
30.5 	5.433E+04	4.674E+04	8.809E+04	7.502E+04	3.423E+04	2.863E+04	7.033E+02	7.743E+05	1.541E+03	1.117E+03	9.181E+02	3.102E+02
31.5 	4.722E+04	4.009E+04	7.522E+04	6.303E+04	2.853E+04	2.339E+04	6.169E+02	6.703E+05	1.376E+03	9.644E+02	8.024E+02	2.625E+02
32.5 	4.050E+04	3.387E+04	6.319E+04	5.199E+04	2.331E+04	1.866E+04	5.901E+02	5.723E+05	1.216E+03	8.203E+02	6.940E+02	2.175E+02
33.5 	3.422E+04	2.813E+04	5.212E+04	4.198E+04	1.859E+04	1.448E+04	5.323E+02	4.802E+05	1.061E+03	6.845E+02	5.210E+02	1.752E+02
34.5 	2.842E+04	2.291E+04	4.207E+04	3.305E+04	1.442E+04	1.086E+04	4.736E+02	3.942E+05	9.097E+02	5.576E+02	4.965E+02	1.361E+02
35.5 	2.314E+04	1.856E+04	3.312E+04	2.523E+04	1.081E+04	7.790E+03	4.142E+02	3.147E+05	6.639E+02	4.402E+02	4.074E+02	1.006E+02
36.5 	1.841E+04	1.410E+04	2.528E+04	1.853E+04	7.753E+03	5.267E+03	3.547E+02	2.420E+05	6.245E+02	3.333E+02	3.250E+02	6.944E+01
37.5 	1.423E+04	1.051E+04	1.855E+04	1.291E+04	5.240E+03	0.000E+00	2.959E+02	1.769E+05	4.930E+02	2.383E+02	2.499E+02	0.000E+00
0.5 	0.000E+00	0.000E+00	0.000E+00	1.537E+05	0.000E+00	3.900E+04	0.000E+00	3.844E+04	1.526E+05	0.000E+00	0.000E+00	0.000E+00
1.5 	2.724E+05	1.253E+05	1.310E+05	1.586E+05	2.606E+04	5.552E+04	3.518E+04	3.610E+04	8.440E+04	5.818E+04	1.824E+05	7.536E+03
2.5 	1.825E+05	1.213E+05	1.650E+05	1.748E+05	4.570E+04	6.746E+04	2.320E+04	2.984E+04	5.926E+04	5.075E+04	8.427E+04	9.112E+03
3.5 	1.563E+05	1.208E+05	1.836E+05	1.877E+05	6.026E+04	7.664E+04	1.630E+04	2.391E+04	4.348E+04	4.052E+04	5.160E+04	8.593E+03
4.5 	1.440E+05	1.203E+05	1.954E+05	1.971E+05	7.116E+04	8.377E+04	1.188E+04	1.910E+04	3.277E+04	3.204E+04	3.521E+04	7.519E+03
5.5 	1.367E+05	1.196E+05	2.033E+05	2.037E+05	7.944E+04	8.936E+04	8.920E+03	1.537E+04	2.528E+04	2.556E+04	2.556E+04	6.425E+03
6.5 	1.316E+05	1.185E+05	2.086E+05	2.084E+05	8.584E+04	9.379E+04	6.875E+03	1.253E+04	1.993E+04	2.069E+04	1.935E+04	5.467E+03
7.5 	1.276E+05	1.172E+05	2.122E+05	2.116E+05	9.087E+04	9.734E+04	5.422E+03	1.035E+04	1.602E+04	1.701E+04	1.513E+04	4.671E+03
8.5 	1.243E+05	1.158E+05	2.147E+05	2.137E+05	9.489E+04	1.002E+05	4.364E+03	8.665E+03	1.311E+04	1.419E+04	1.213E+04	4.020E+03
9.5 	1.215E+05	1.143E+05	2.163E+05	2.150E+05	9.812E+04	1.025E+05	3.576E+03	7.343E+03	1.090E+04	1.200E+04	9.934E+03	3.191E+03
10.5 	1.190E+05	1.128E+05	2.172E+05	2.157E+05	1.007E+05	1.044E+05	2.978E+03	6.295E+03	9.192E+03	1.028E+04	8.279E+03	3.058E+03
11.5 	1.166E+05	1.112E+05	2.176E+05	2.159E+05	1.029E+05	1.059E+05	2.515E+03	5.454E+03	7.850E+03	8.909E+03	7.005E+03	2.702E+03
12.5 	1.144E+05	1.095E+05	2.175E+05	2.157E+05	1.046E+05	1.071E+05	2.153E+03	4.772E+03	6.783E+03	7.800E+03	6.006E+03	2.408E+03
13.5 	1.123E+05	1.079E+05	2.171E+05	2.151E+05	1.059E+05	1.080E+05	1.866E+03	4.213E+03	5.925E+03	6.895E+03	5.209E+03	2.163E+03
14.5 	1.103E+05	1.062E+05	2.163E+05	2.142E+05	1.069E+05	1.086E+05	1.635E+03	3.751E+03	5.227E+03	6.149E+03	4.566E+03	1.958E+03
15.5 	1.083E+05	1.045E+05	2.152E+05	2.129E+05	1.076E+05	1.089E+05	1.449E+03	3.367E+03	4.657E+03	5.529E+03	4.041E+03	1.786E+03
16.5 	1.064E+05	1.027E+05	2.139E+05	2.113E+05	1.081E+05	1.090E+05	1.299E+03	3.046E+03	4.187E+03	5.012E+03	3.608E+03	1.641E+03
17.5 	1.044E+05	1.009E+05	2.122E+05	2.094E+05	1.082E+05	1.088E+05	1.176E+03	2.777E+03	3.800E+03	4.580E+03	3.250E+03	1.520E+03
18.5 	1.025E+05	9.911E+04	2.102E+05	2.072E+05	1.081E+05	1.083E+05	1.077E+03	2.550E+03	3.480E+03	4.216E+03	2.951E+03	1.418E+03
19.5 	1.005E+05	9.723E+04	2.080E+05	2.047E+05	1.077E+05	1.076E+05	9.961E+02	2.360E+03	3.216E+03	3.912E+03	2.701E+03	1.333E+03
20.5 	9.852E+04	9.528E+04	2.054E+05	2.018E+05	1.071E+05	1.066E+05	9.318E+02	2.201E+03	2.998E+03	3.657E+03	2.492E+03	1.263E+03
21.5 	9.647E+04	9.326E+04	2.025E+05	1.986E+05	1.061E+05	1.054E+05	8.809E+02	2.067E+03	2.821E+03	3.446E+03	2.317E+03	1.206E+03
22.5 	9.437E+04	9.115E+04	1.992E+05	1.950E+05	1.049E+05	1.039E+05	8.417E+02	1.956E+03	2.678E+03	3.271E+03	2.171E+03	1.161E+03
23.5 	9.219E+04	8.896E+04	1.956E+05	1.911E+05	1.034E+05	1.020E+05	8.125E+02	1.863E+03	2.564E+03	3.128E+03	2.049E+03	1.126E+03
24.5 	8.994E+04	8.667E+04	1.916E+05	1.867E+05	1.016E+05	9.990E+04	7.920E+02	1.787E+03	2.475E+03	3.013E+03	1.949E+03	1.100E+03
25.5 	8.759E+04	8.426E+04	1.872E+05	1.819E+05	9.953E+04	9.746E+04	7.789E+02	1.724E+03	2.407E+03	2.921E+03	1.866E+03	1.082E+03
26.5 	8.514E+04	8.173E+04	1.825E+05	1.768E+05	9.711E+04	9.470E+04	7.723E+02	1.673E+03	2.357E+03	2.849E+03	1.797E+03	1.070E+03
27.5 	8.257E+04	7.907E+04	1.772E+05	1.711E+05	9.437E+04	9.162E+04	7.711E+02	1.631E+03	2.321E+03	2.794E+03	1.741E+03	1.063E+03
28.5 	7.988E+04	7.628E+04	1.716E+05	1.650E+05	9.130E+04	8.822E+04	7.744E+02	1.596E+03	2.298E+03	2.751E+03	1.695E+03	1.060E+03
29.5 	7.705E+04	7.334E+04	1.654E+05	1.585E+05	8.792E+04	8.451E+04	7.812E+02	1.565E+03	2.283E+03	2.717E+03	1.657E+03	1.060E+03
30.5 	7.408E+04	7.025E+04	1.589E+05	1.515E+05	8.421E+04	8.048E+04	7.905E+02	1.538E+03	2.273E+03	2.688E+03	1.623E+03	1.060E+03
31.5 	7.095E+04	6.701E+04	1.518E+05	1.440E+05	8.019E+04	7.615E+04	8.013E+02	1.511E+03	2.266E+03	2.661E+03	1.593E+03	1.059E+03
32.5 	6.768E+04	6.362E+04	1.443E+05	1.361E+05	7.587E+04	7.151E+04	8.124E+02	1.483E+03	2.259E+03	2.631E+03	1.564E+03	1.055E+03
33.5 	6.425E+04	6.007E+04	1.364E+05	1.277E+05	7.124E+04	6.657E+04	8.227E+02	1.450E+03	2.247E+03	2.593E+03	1.534E+03	1.045E+03
34.5 	6.066E+04	5.635E+04	1.280E+05	1.189E+05	6.630E+04	6.130E+04	8.309E+02	1.412E+03	2.227E+03	2.543E+03	1.499E+03	1.027E+03
35.5 	5.690E+04	5.245E+04	1.191E+05	1.095E+05	6.103E+04	5.564E+04	8.355E+02	1.364E+03	2.196E+03	2.474E+03	1.459E+03	9.965E+02
36.5 	5.296E+04	4.834E+04	1.096E+05	9.945E+04	5.538E+04	4.952E+04	8.348E+02	1.302E+03	2.147E+03	2.378E+03	1.408E+03	9.490E+02
37.5 	4.880E+04	4.397E+04	9.958E+04	8.863E+04	4.926E+04	0.000E+00	8.267E+02	1.221E+03	2.074E+03	2.245E+03	1.344E+03	0.000E+00
